[gd_scene load_steps=2 format=2]

[ext_resource path="res://General/SoftCollision.gd" type="Script" id=1]

[node name="SoftCollision" type="Area2D"]
collision_layer = 32
collision_mask = 32
script = ExtResource( 1 )

[node name="CollisionShape2D" type="CollisionShape2D" parent="."]
